{
  "annotations": {
    "list": [
      {
        "builtIn": 1,
        "datasource": "-- Grafana --",
        "enable": true,
        "hide": true,
        "iconColor": "rgba(0, 211, 255, 1)",
        "name": "Annotations & Alerts",
        "type": "dashboard"
      }
    ]
  },
  "editable": true,
  "gnetId": null,
  "graphTooltip": 0,
  "id": 3,
  "iteration": 1579173772054,
  "links": [],
  "panels": [
    {
      "content": "\n# Graph for commits \n\n",
      "datasource": null,
      "gridPos": {
        "h": 9,
        "w": 2,
        "x": 0,
        "y": 0
      },
      "id": 7,
      "mode": "markdown",
      "options": {},
      "timeFrom": null,
      "timeShift": null,
      "title": "",
      "transparent": true,
      "type": "text"
    },
    {
      "aliasColors": {
        "commits.sum": "rgb(204, 18, 40)",
        "sum": "green"
      },
      "bars": false,
      "dashLength": 10,
      "dashes": false,
      "datasource": "InfluxDB",
      "decimals": 0,
      "fill": 10,
      "fillGradient": 10,
      "gridPos": {
        "h": 10,
        "w": 10,
        "x": 2,
        "y": 0
      },
      "hiddenSeries": false,
      "hideTimeOverride": false,
      "id": 2,
      "interval": "",
      "legend": {
        "alignAsTable": true,
        "avg": false,
        "current": false,
        "hideEmpty": true,
        "hideZero": true,
        "max": false,
        "min": false,
        "rightSide": false,
        "show": true,
        "total": true,
        "values": true
      },
      "lines": true,
      "linewidth": 3,
      "nullPointMode": "null",
      "options": {
        "dataLinks": []
      },
      "percentage": false,
      "pointradius": 3,
      "points": true,
      "renderer": "flot",
      "seriesOverrides": [
        {
          "alias": "commits.sum",
          "yaxis": 1
        }
      ],
      "spaceLength": 10,
      "stack": false,
      "steppedLine": false,
      "targets": [
        {
          "groupBy": [
            {
              "params": [
                "7d"
              ],
              "type": "time"
            },
            {
              "params": [
                "0"
              ],
              "type": "fill"
            }
          ],
          "hide": false,
          "limit": "",
          "measurement": "commits",
          "orderByTime": "ASC",
          "policy": "autogen",
          "query": "SELECT sum(\"commits\") FROM \"autogen\".\"commits\" WHERE (\"committer_name\" = 'Sohaib Omar') AND $timeFilter GROUP BY time(7d) fill(0)",
          "rawQuery": false,
          "refId": "A",
          "resultFormat": "table",
          "select": [
            [
              {
                "params": [
                  "commits"
                ],
                "type": "field"
              },
              {
                "params": [],
                "type": "sum"
              }
            ]
          ],
          "slimit": "",
          "tags": [
            {
              "key": "committer_name",
              "operator": "=",
              "value": "Sohaib Omar"
            }
          ]
        },
        {
          "groupBy": [
            {
              "params": [
                "7d"
              ],
              "type": "time"
            },
            {
              "params": [
                "0"
              ],
              "type": "fill"
            }
          ],
          "hide": false,
          "limit": "",
          "measurement": "commits",
          "orderByTime": "ASC",
          "policy": "autogen",
          "query": "SELECT sum(\"commits\") FROM \"autogen\".\"commits\" WHERE (\"committer_name\" = 'Sohaib Omar') AND $timeFilter GROUP BY time(7d) fill(0)",
          "rawQuery": false,
          "refId": "B",
          "resultFormat": "table",
          "select": [
            [
              {
                "params": [
                  "commits"
                ],
                "type": "field"
              },
              {
                "params": [],
                "type": "sum"
              }
            ]
          ],
          "slimit": "",
          "tags": [
            {
              "key": "committer_name",
              "operator": "=~",
              "value": "/^$user_name$/"
            }
          ]
        }
      ],
      "thresholds": [],
      "timeFrom": null,
      "timeRegions": [],
      "timeShift": null,
      "title": "",
      "tooltip": {
        "shared": true,
        "sort": 0,
        "value_type": "individual"
      },
      "transparent": true,
      "type": "graph",
      "xaxis": {
        "buckets": null,
        "mode": "time",
        "name": null,
        "show": true,
        "values": []
      },
      "yaxes": [
        {
          "decimals": 0,
          "format": "short",
          "label": "",
          "logBase": 1,
          "max": null,
          "min": null,
          "show": true
        },
        {
          "format": "short",
          "label": null,
          "logBase": 1,
          "max": null,
          "min": null,
          "show": false
        }
      ],
      "yaxis": {
        "align": false,
        "alignLevel": null
      }
    },
    {
      "content": "\n# PiChart\n",
      "datasource": null,
      "gridPos": {
        "h": 2,
        "w": 2,
        "x": 17,
        "y": 0
      },
      "id": 9,
      "mode": "markdown",
      "options": {},
      "timeFrom": null,
      "timeShift": null,
      "title": "",
      "transparent": true,
      "type": "text"
    },
    {
      "aliasColors": {
        "commits.commits {commiter_name: }": "#B877D9",
        "commits.committer_name {commiter_name: }": "rgb(206, 10, 10)"
      },
      "breakPoint": "75%",
      "cacheTimeout": null,
      "combine": {
        "label": "Others",
        "threshold": 0
      },
      "datasource": "InfluxDB",
      "fontSize": "110%",
      "format": "percent",
      "gridPos": {
        "h": 17,
        "w": 11,
        "x": 13,
        "y": 2
      },
      "hideTimeOverride": true,
      "id": 4,
      "interval": null,
      "legend": {
        "percentage": true,
        "percentageDecimals": null,
        "show": true,
        "values": false
      },
      "legendType": "On graph",
      "links": [],
      "maxDataPoints": 3,
      "nullPointMode": "connected",
      "options": {},
      "pieType": "pie",
      "repeat": null,
      "repeatDirection": null,
      "strokeWidth": 1,
      "targets": [
        {
          "groupBy": [
            {
              "params": [
                "committer_name"
              ],
              "type": "tag"
            }
          ],
          "measurement": "commits",
          "orderByTime": "ASC",
          "policy": "autogen",
          "refId": "A",
          "resultFormat": "time_series",
          "select": [
            [
              {
                "params": [
                  "commits"
                ],
                "type": "field"
              },
              {
                "params": [],
                "type": "count"
              }
            ]
          ],
          "tags": []
        }
      ],
      "timeFrom": null,
      "timeShift": null,
      "title": "",
      "transparent": true,
      "type": "grafana-piechart-panel",
      "valueName": "total"
    },
    {
      "content": "\n# Graph for commit size\n\n",
      "datasource": null,
      "gridPos": {
        "h": 8,
        "w": 2,
        "x": 0,
        "y": 9
      },
      "id": 6,
      "mode": "markdown",
      "options": {},
      "timeFrom": null,
      "timeShift": null,
      "title": "",
      "transparent": true,
      "type": "text"
    },
    {
      "aliasColors": {
        "commits.sum": "purple",
        "sum": "purple"
      },
      "bars": false,
      "dashLength": 10,
      "dashes": false,
      "datasource": "InfluxDB",
      "decimals": 0,
      "fill": 4,
      "fillGradient": 4,
      "gridPos": {
        "h": 9,
        "w": 10,
        "x": 2,
        "y": 10
      },
      "hiddenSeries": false,
      "hideTimeOverride": false,
      "id": 8,
      "interval": "",
      "legend": {
        "alignAsTable": true,
        "avg": false,
        "current": false,
        "hideEmpty": true,
        "hideZero": true,
        "max": false,
        "min": false,
        "rightSide": false,
        "show": true,
        "total": true,
        "values": true
      },
      "lines": true,
      "linewidth": 3,
      "nullPointMode": "connected",
      "options": {
        "dataLinks": []
      },
      "percentage": false,
      "pointradius": 3,
      "points": true,
      "renderer": "flot",
      "seriesOverrides": [],
      "spaceLength": 10,
      "stack": false,
      "steppedLine": false,
      "targets": [
        {
          "groupBy": [
            {
              "params": [
                "7d"
              ],
              "type": "time"
            },
            {
              "params": [
                "0"
              ],
              "type": "fill"
            }
          ],
          "limit": "",
          "measurement": "commits",
          "orderByTime": "ASC",
          "policy": "autogen",
          "refId": "A",
          "resultFormat": "table",
          "select": [
            [
              {
                "params": [
                  "total"
                ],
                "type": "field"
              },
              {
                "params": [],
                "type": "sum"
              }
            ]
          ],
          "slimit": "",
          "tags": [
            {
              "key": "committer_name",
              "operator": "=~",
              "value": "/^$user_name$/"
            }
          ]
        }
      ],
      "thresholds": [],
      "timeFrom": null,
      "timeRegions": [],
      "timeShift": null,
      "title": "",
      "tooltip": {
        "shared": true,
        "sort": 0,
        "value_type": "cumulative"
      },
      "transparent": true,
      "type": "graph",
      "xaxis": {
        "buckets": null,
        "mode": "time",
        "name": null,
        "show": true,
        "values": []
      },
      "yaxes": [
        {
          "decimals": 0,
          "format": "locale",
          "label": "",
          "logBase": 1,
          "max": null,
          "min": "0",
          "show": true
        },
        {
          "format": "short",
          "label": null,
          "logBase": 1,
          "max": null,
          "min": null,
          "show": false
        }
      ],
      "yaxis": {
        "align": true,
        "alignLevel": 0
      }
    }
  ],
  "refresh": "10s",
  "schemaVersion": 21,
  "style": "dark",
  "tags": [],
  "templating": {
    "list": [
      {
        "allValue": "0",
        "current": {
          "text": "Talha Junaid",
          "value": "Talha Junaid"
        },
        "datasource": "InfluxDB",
        "definition": "SHOW TAG VALUES FROM \"commits\" WITH KEY = \"committer_name\"",
        "hide": 0,
        "includeAll": true,
        "label": "user_name",
        "multi": false,
        "name": "user_name",
        "options": [],
        "query": "SHOW TAG VALUES FROM \"commits\" WITH KEY = \"committer_name\"",
        "refresh": 1,
        "regex": "",
        "skipUrlSync": false,
        "sort": 1,
        "tagValuesQuery": "",
        "tags": [],
        "tagsQuery": "",
        "type": "query",
        "useTags": false
      }
    ]
  },
  "time": {
    "from": "now-1y/y",
    "to": "now-1y/y"
  },
  "timepicker": {
    "hidden": false,
    "refresh_intervals": [
      "5s",
      "10s",
      "30s",
      "1m",
      "90s",
      "5m",
      "15m",
      "30m",
      "1h",
      "2h",
      "1d"
    ]
  },
  "timezone": "browser",
  "title": "Gitlab_Statistic_Project",
  "uid": "cG_wZVLWz",
  "version": 54
}